Simulate Meta-Analysis Data • simeta
…
It can be useful, for more human-interpretable purposes, to display the sample sizes in wide format.

simulation parameters

Adding a few values of τ, different numbers of studies k, and so forth can ramp up the number of combinations of simulation parameters very quickly.

I haven’t settled on a way of simulating data, and haven’t found heaps in the way of guidance yet. So, this is all a bit experimental. My guiding star is packaging what I’d use right now.

What I do always end up with is generating a dataset that summarises what I would like to iterate over in simulation.

The sim_df takes user inputs for distributions, numbers of studies, between-study error τ, within-study error ε, and the proportion ρ of sample size we expect the sample sizes to different within study cohorts.

# defaults
sim_df() 
#> # A tibble: 216 × 7
#>        k tau_sq_true effect_ratio rdist  parameters       n        sim_id
#>    <dbl>       <dbl>        <dbl> <chr>  <list>           <list>   <chr> 
#>  1     3           0            1 pareto <named list [2]> <tibble> sim 1 
#>  2     3           0            1 norm   <named list [2]> <tibble> sim 2 
#>  3     3           0            1 lnorm  <named list [2]> <tibble> sim 3 
#>  4     3           0            1 exp    <named list [1]> <tibble> sim 4 
#>  5     3           0            1 pareto <named list [2]> <tibble> sim 5 
#>  6     3           0            1 norm   <named list [2]> <tibble> sim 6 
#>  7     3           0            1 lnorm  <named list [2]> <tibble> sim 7 
#>  8     3           0            1 exp    <named list [1]> <tibble> sim 8 
#>  9     7           0            1 pareto <named list [2]> <tibble> sim 9 
#> 10     7           0            1 norm   <named list [2]> <tibble> sim 10
#> # … with 206 more rows
…
